-----BEGIN PGP MESSAGE-----

jA0ECQMCs1qQSQ5yIdX/0r4B8DAzeEPl+IqYO57/Ja4rvKp9mnPXtmWQhu8qJfJL
Ev9ij7XJViAhk4g2tzKfPFgIi1BkiQPh3t7XYBW75HZ2le2V+Yf1aDlNYq1k53Ie
FFq79TSyuRT4onB4vTzrY6yan9Hm6dORlQY4t3P3CpMohp+FiSAq6mEiQ+xbcaYZ
7VspWU+BZMbnFom6AXaDaGYhzyKsrriz3Vlgblux/BqrAWgAkAmzmeKN7M5Tcpzw
rN34kzxq2bGYs1CGIS18
=lqnH
-----END PGP MESSAGE-----
