<?xml version="1.0" encoding="UTF-8" standalone="no"?>
<svg
   style="fill-opacity:1;color-rendering:auto;color-interpolation:auto;text-rendering:auto;stroke:#000;stroke-linecap:square;stroke-miterlimit:10;shape-rendering:auto;stroke-opacity:1;fill:#000;stroke-dasharray:none;font-weight:400;stroke-width:1;font-family:'Dialog';font-style:normal;stroke-linejoin:miter;font-size:12px;stroke-dashoffset:0;image-rendering:auto"
   width="1762"
   height="1050"
   version="1.1"
   id="svg3862"
   xmlns:xlink="http://www.w3.org/1999/xlink"
   xmlns="http://www.w3.org/2000/svg"
   xmlns:svg="http://www.w3.org/2000/svg">
  <defs
     id="defs3866">
    <linearGradient
       id="linearGradient4238">
      <stop
         style="stop-color:#fa9e7e;stop-opacity:1"
         offset="0"
         id="stop4234" />
      <stop
         style="stop-color:#8e0bfd;stop-opacity:1"
         offset="1"
         id="stop4236" />
    </linearGradient>
    <linearGradient
       xlink:href="#linearGradient4238"
       id="linearGradient4240"
       x1="31.828436"
       y1="964.42267"
       x2="1540.5387"
       y2="249.69286"
       gradientUnits="userSpaceOnUse" />
  </defs>
  <rect
     style="fill:url(#linearGradient4240);fill-opacity:1;stroke:#000000;stroke-width:1;stroke-opacity:1"
     id="rect4202"
     width="1761.9999"
     height="1050"
     x="-1.2552839e-08"
     y="-2.5496308e-06" />
  <text
     xml:space="preserve"
     style="font-style:normal;font-variant:normal;font-weight:normal;font-stretch:normal;font-size:277.333px;line-height:0.92;font-family:'Woodford Bourne';-inkscape-font-specification:'Woodford Bourne, Normal';font-variant-ligatures:normal;font-variant-caps:normal;font-variant-numeric:normal;font-variant-east-asian:normal;display:inline;fill:#002c36;fill-opacity:1;stroke:none"
     x="967.32324"
     y="456.27954"
     id="text3858"><tspan
       id="tspan3988">clear</tspan><tspan
       id="tspan3990">sky</tspan></text>
  <path
     style="display:inline;fill:#002c36;stroke-width:0.999997;fill-opacity:1;stroke:#000000;stroke-opacity:1"
     d="M524.035 224.746a300.42 300.42 0 0 0-300.422 300.42 300.42 300.42 0 0 0 300.422 300.42 300.42 300.42 0 0 0 300.42-300.42 300.42 300.42 0 0 0-2.682-39.459 166.966 166.966 0 0 1-142.566 80.553 166.966 166.966 0 0 1-166.965-166.965A166.966 166.966 0 0 1 624.344 242.01a300.42 300.42 0 0 0-100.309-17.264zm100.309 17.264a300.42 300.42 0 0 1 197.43 243.697 166.966 166.966 0 0 0 24.4-86.412 166.966 166.966 0 0 0-166.967-166.967 166.966 166.966 0 0 0-54.863 9.682z"
     id="path3860" />
</svg>
