<?xml version="1.0" encoding="UTF-8" standalone="no"?>
<svg
   style="fill-opacity:1; color-rendering:auto; color-interpolation:auto; text-rendering:auto; stroke:black; stroke-linecap:square; stroke-miterlimit:10; shape-rendering:auto; stroke-opacity:1; fill:black; stroke-dasharray:none; font-weight:normal; stroke-width:1; font-family:'Dialog'; font-style:normal; stroke-linejoin:miter; font-size:12px; stroke-dashoffset:0; image-rendering:auto;"
   width="1762"
   height="1050"
   version="1.1"
   id="svg27"
   sodipodi:docname="ClearSky_Logo_Type_Black_small.svg"
   inkscape:version="1.1 (1:1.1+202105261518+ce6663b3b7)"
   xmlns:inkscape="http://www.inkscape.org/namespaces/inkscape"
   xmlns:sodipodi="http://sodipodi.sourceforge.net/DTD/sodipodi-0.dtd"
   xmlns="http://www.w3.org/2000/svg"
   xmlns:svg="http://www.w3.org/2000/svg">
  <sodipodi:namedview
     id="namedview29"
     pagecolor="#ffffff"
     bordercolor="#666666"
     borderopacity="1.0"
     inkscape:pageshadow="2"
     inkscape:pageopacity="0.0"
     inkscape:pagecheckerboard="0"
     showgrid="false"
     inkscape:zoom="0.37968218"
     inkscape:cx="435.89088"
     inkscape:cy="421.40508"
     inkscape:window-width="1848"
     inkscape:window-height="1035"
     inkscape:window-x="72"
     inkscape:window-y="27"
     inkscape:window-maximized="1"
     inkscape:current-layer="svg27" />
  <!--Generated by the Batik Graphics2D SVG Generator-->
  <defs
     id="genericDefs" />
  <text
     xml:space="preserve"
     style="font-style:normal;font-variant:normal;font-weight:normal;font-stretch:normal;font-size:277.333px;line-height:0.92;font-family:'Woodford Bourne';-inkscape-font-specification:'Woodford Bourne, Normal';font-variant-ligatures:normal;font-variant-caps:normal;font-variant-numeric:normal;font-variant-east-asian:normal;display:inline;fill:#000000;fill-opacity:1;stroke:none"
     x="966.10138"
     y="455.112"
     id="text1354"><tspan
       sodipodi:role="line"
       id="tspan1352"
       x="0"
       y="0">clear</tspan><tspan
       sodipodi:role="line"
       x="0"
       y="0"
       id="tspan1356">sky</tspan></text>
  <path
     id="path3499"
     style="display:inline;fill:#800080;stroke-width:0.999997"
     d="M 524.03516 224.74609 A 300.42044 300.42044 0 0 0 223.61328 525.16602 A 300.42044 300.42044 0 0 0 524.03516 825.58594 A 300.42044 300.42044 0 0 0 824.45508 525.16602 A 300.42044 300.42044 0 0 0 821.77344 485.70703 A 166.96606 166.96606 0 0 1 679.20703 566.25977 A 166.96606 166.96606 0 0 1 512.24219 399.29492 A 166.96606 166.96606 0 0 1 624.34375 242.00977 A 300.42044 300.42044 0 0 0 524.03516 224.74609 z M 624.34375 242.00977 A 300.42044 300.42044 0 0 1 821.77344 485.70703 A 166.96606 166.96606 0 0 0 846.17383 399.29492 A 166.96606 166.96606 0 0 0 679.20703 232.32812 A 166.96606 166.96606 0 0 0 624.34375 242.00977 z " />
</svg>
