<?xml version="1.0"?>
<!DOCTYPE svg PUBLIC '-//W3C//DTD SVG 1.0//EN'
          'http://www.w3.org/TR/2001/REC-SVG-20010904/DTD/svg10.dtd'>
<svg xmlns:xlink="http://www.w3.org/1999/xlink" style="fill-opacity:1; color-rendering:auto; color-interpolation:auto; text-rendering:auto; stroke:black; stroke-linecap:square; stroke-miterlimit:10; shape-rendering:auto; stroke-opacity:1; fill:black; stroke-dasharray:none; font-weight:normal; stroke-width:1; font-family:'Dialog'; font-style:normal; stroke-linejoin:miter; font-size:12px; stroke-dashoffset:0; image-rendering:auto;" width="1762" height="1050" xmlns="http://www.w3.org/2000/svg"
><!--Generated by the Batik Graphics2D SVG Generator--><defs id="genericDefs"
  /><g
  ><g style="stroke-linecap:round;" transform="translate(525,525)"
    ><path style="stroke:none;" d="M-1.4303 299.9967 L-5.7116 299.9467 L-9.505 299.8523 L-13.7585 299.6901 L-17.5265 299.4965 L-21.7507 299.2235 L-25.4921 298.9321 L-29.6856 298.5497 L-33.399 298.1617 L-37.5604 297.6714 L-41.7042 297.1245 L-45.3725 296.5912 L-49.482 295.9386 L-53.1192 295.3118 L-57.193 294.5547 L-61.2473 293.743 L-65.2817 292.8769 L-68.8509 292.0619 L-72.8467 291.0944 L-76.8215 290.0738 L-80.7748 289.0004 L-84.2706 288.0023 L-88.1824 286.8304 L-92.0716 285.6069 L-95.9379 284.3323 L-99.7807 283.0068 L-103.5998 281.631 L-107.3947 280.2051 L-110.7474 278.8961 L-114.4956 277.3769 L-118.2185 275.8088 L-121.9156 274.1924 L-125.5867 272.5279 L-129.2312 270.8157 L-132.8489 269.0563 L-136.4392 267.25 L-140.0018 265.3972 L-143.5363 263.4985 L-147.0423 261.554 L-150.5194 259.5643 L-153.9672 257.5297 L-157.3853 255.4506 L-160.7733 253.3275 L-164.1309 251.1606 L-167.4575 248.9506 L-170.7529 246.6976 L-174.0165 244.4022 L-177.2481 242.0647 L-180.4472 239.6855 L-183.6134 237.2651 L-186.7464 234.8037 L-189.8456 232.3019 L-192.9108 229.7599 L-195.9415 227.1783 L-198.9374 224.5574 L-201.8979 221.8976 L-204.8229 219.1993 L-207.7117 216.4629 L-210.5641 213.6888 L-213.3797 210.8773 L-216.1579 208.029 L-218.8985 205.1442 L-221.899 201.8965 L-224.5589 198.9359 L-227.1798 195.9401 L-229.7614 192.9093 L-232.3034 189.8441 L-234.8052 186.7449 L-237.2666 183.6119 L-239.6871 180.4457 L-242.0663 177.2466 L-244.4038 174.015 L-246.6992 170.7513 L-248.9522 167.4559 L-251.1623 164.1293 L-253.3292 160.7717 L-255.4523 157.3837 L-257.5315 153.9655 L-259.5661 150.5177 L-261.5559 147.0406 L-263.5004 143.5345 L-265.3993 140 L-267.2521 136.4373 L-269.0584 132.8469 L-270.8179 129.2293 L-272.5301 125.5847 L-274.1947 121.9136 L-275.8112 118.2164 L-277.2075 114.9084 L-278.7322 111.1629 L-280.2076 107.3925 L-281.6335 103.5975 L-283.0095 99.7784 L-284.335 95.9354 L-285.6097 92.0691 L-286.8333 88.1798 L-287.8776 84.7037 L-289.0034 80.7722 L-290.0768 76.8187 L-291.0974 72.8439 L-291.9601 69.293 L-292.8801 65.2788 L-293.7462 61.2443 L-294.5581 57.1899 L-295.2338 53.5696 L-295.942 49.4787 L-296.5948 45.3691 L-297.1282 41.7008 L-297.6752 37.5569 L-298.1656 33.3954 L-298.5537 29.6819 L-298.9361 25.4883 L-299.2276 21.7469 L-299.5007 17.5226 L-299.6943 13.7545 L-299.8566 9.5009 L-299.951 5.7074 L-299.9985 1.9024 L-299.9908 -2.3829 L-299.9375 -6.1864 L-299.8213 -10.4515 L-299.6684 -14.2302 L-299.4409 -18.4666 L-299.1896 -22.2191 L-298.8521 -26.4254 L-298.5037 -30.1505 L-298.0577 -34.3253 L-297.6135 -38.0217 L-297.0603 -42.1635 L-296.451 -46.2873 L-295.8626 -49.9375 L-295.1483 -54.0261 L-294.3791 -58.0956 L-293.6494 -61.6966 L-292.7774 -65.7288 L-291.8515 -69.7407 L-290.8722 -73.7318 L-289.9571 -77.2618 L-288.8779 -81.2128 L-287.7464 -85.1418 L-286.563 -89.0486 L-285.3281 -92.9328 L-284.1875 -96.366 L-282.8564 -100.2062 L-281.475 -104.0227 L-280.0436 -107.8149 L-278.5627 -111.5825 L-277.0326 -115.3251 L-275.4538 -119.0423 L-273.8267 -122.7337 L-272.1515 -126.3989 L-270.4288 -130.0375 L-268.6589 -133.6491 L-267.0464 -136.8364 L-265.1885 -140.3959 L-263.2847 -143.9273 L-261.3352 -147.4301 L-259.3405 -150.904 L-257.3009 -154.3485 L-255.2169 -157.7633 L-253.0889 -161.1479 L-250.9172 -164.502 L-248.7023 -167.8252 L-246.4447 -171.1171 L-244.1446 -174.3772 L-241.8024 -177.6052 L-239.4186 -180.8006 L-236.7216 -184.3125 L-234.2513 -187.438 L-231.7404 -190.5297 L-229.1897 -193.5873 L-226.5993 -196.6103 L-223.9697 -199.5983 L-221.3013 -202.551 L-218.5945 -205.468 L-215.8496 -208.3488 L-213.0672 -211.193 L-210.2476 -214.0003 L-207.3911 -216.7702 L-204.4982 -219.5024 L-201.5693 -222.1965 L-198.6048 -224.852 L-195.605 -227.4686 L-192.5705 -230.0458 L-189.5015 -232.5833 L-186.3984 -235.0807 L-183.2617 -237.5375 L-180.0919 -239.9535 L-176.8891 -242.328 L-173.6539 -244.6609 L-170.3867 -246.9517 L-167.0878 -249.1999 L-163.7577 -251.4052 L-160.3968 -253.5672 L-156.6267 -255.9182 L-153.5839 -257.7597 L-150.1328 -259.7894 L-146.6524 -261.7742 L-143.1432 -263.7137 L-139.6055 -265.6074 L-136.0397 -267.4551 L-132.4463 -269.2562 L-128.8257 -271.0105 L-125.1781 -272.7174 L-121.5041 -274.3767 L-117.804 -275.9879 L-114.0782 -277.5505 L-110.3272 -279.0643 L-106.5513 -280.5288 L-102.7509 -281.9436 L-98.9264 -283.3084 L-95.507 -284.4792 L-91.6381 -285.7482 L-87.7463 -286.9661 L-83.832 -288.1323 L-79.8955 -289.2464 L-76.3781 -290.1928 L-72.4009 -291.2076 L-68.4027 -292.1692 L-64.384 -293.0772 L-60.7948 -293.8391 L-56.7382 -294.6449 L-52.6622 -295.396 L-48.5671 -296.0919 L-44.9114 -296.6639 L-40.7815 -297.2546 L-37.0954 -297.7325 L-32.932 -298.2166 L-28.7514 -298.6436 L-25.0213 -298.9751 L-20.8095 -299.2933 L-17.0522 -299.5274 L-12.8106 -299.7354 L-9.0274 -299.8709 L-5.2324 -299.9596 L-0.9494 -300.003 L0 -300 L4.2861 -299.97 L8.0839 -299.8932 L12.3424 -299.7507 L16.115 -299.5745 L20.3444 -299.321 L24.0906 -299.0468 L28.2896 -298.6836 L32.008 -298.3125 L36.1752 -297.8412 L40.3249 -297.3131 L43.9986 -296.7964 L48.1142 -296.1623 L51.757 -295.552 L55.8372 -294.8132 L59.898 -294.0196 L63.9392 -293.1716 L67.5144 -292.3725 L71.5171 -291.4228 L75.4989 -290.4199 L79.4595 -289.364 L82.9617 -288.3815 L86.881 -287.2268 L90.7777 -286.0205 L94.6517 -284.7628 L98.5024 -283.4543 L98.6079 -283.4168 L101.2833 -284.3351 L105.1662 -285.5677 L109.0896 -286.7071 L113.0523 -287.7521 L117.0529 -288.7015 L120.6399 -289.4639 L124.7086 -290.229 L128.8116 -290.8947 L132.4864 -291.4019 L136.6504 -291.8761 L140.845 -292.2472 L144.598 -292.4894 L148.8465 -292.6622 L152.6455 -292.726 L153.6 -292.7303 L157.8783 -292.6763 L161.6589 -292.5385 L165.8858 -292.2834 L169.6187 -291.9688 L173.7898 -291.5173 L177.9293 -290.9636 L181.5814 -290.3867 L185.6579 -289.6436 L189.6992 -288.802 L193.2608 -287.9724 L197.2321 -286.9485 L201.1644 -285.8298 L205.0565 -284.6179 L208.9071 -283.3138 L212.7148 -281.9189 L216.0624 -280.6038 L219.7857 -279.0409 L223.4624 -277.391 L227.0913 -275.6552 L230.671 -273.8351 L234.2002 -271.9317 L237.6778 -269.9464 L241.1023 -267.8804 L244.4725 -265.7351 L247.7871 -263.5119 L251.0448 -261.2119 L254.2443 -258.8365 L257.3843 -256.387 L260.4634 -253.8646 L263.4806 -251.2706 L266.4344 -248.6064 L269.3235 -245.8732 L272.4562 -242.757 L275.2045 -239.8824 L277.8842 -236.9429 L280.4939 -233.9398 L283.0322 -230.8743 L285.4981 -227.7477 L287.89 -224.5613 L290.2068 -221.3164 L292.4472 -218.0144 L294.6099 -214.6565 L296.6936 -211.244 L298.6969 -207.7781 L300.6186 -204.2602 L302.4574 -200.6916 L304.2119 -197.0736 L305.881 -193.4074 L307.4633 -189.6944 L308.9576 -185.9358 L310.2108 -182.5577 L311.5352 -178.7166 L312.7677 -174.8337 L313.9072 -170.9103 L314.9522 -166.9476 L315.8008 -163.3933 L316.664 -159.36 L317.429 -155.2913 L318.0947 -151.1884 L318.6019 -147.5136 L319.0762 -143.3495 L319.4111 -139.6225 L319.6895 -135.402 L319.8483 -131.6268 L319.9261 -127.3545 L319.9064 -123.5449 L319.7809 -119.2842 L319.5803 -115.5199 L319.2553 -111.3122 L318.8793 -107.5971 L318.3596 -103.4469 L317.8125 -99.785 L317.1024 -95.697 L316.2935 -91.6438 L315.3871 -87.6267 L314.5005 -84.0873 L313.4133 -80.1418 L312.2323 -76.2362 L310.9587 -72.3717 L309.594 -68.5495 L308.1393 -64.7711 L306.7717 -61.4502 L305.1507 -57.7578 L303.4434 -54.1128 L301.6512 -50.5166 L299.7754 -46.9703 L297.8173 -43.4754 L297.055 -42.1887 L296.9334 -43.0781 L296.3834 -46.7411 L295.7121 -50.8445 L294.9855 -54.929 L294.2935 -58.5435 L293.4635 -62.5913 L292.5794 -66.6191 L291.6415 -70.6265 L290.7631 -74.1712 L289.7248 -78.1389 L288.6339 -82.0851 L287.4908 -86.0094 L286.2958 -89.9112 L285.1905 -93.3605 L283.8988 -97.219 L282.5564 -101.0541 L281.1638 -104.8652 L279.7213 -108.6521 L278.2294 -112.4142 L276.6884 -116.1513 L275.0987 -119.8628 L273.6451 -123.1402 L271.9646 -126.8025 L270.2366 -130.4382 L268.4615 -134.0468 L266.6396 -137.628 L264.7714 -141.1813 L262.8573 -144.7064 L260.8976 -148.2028 L258.8929 -151.6702 L256.8434 -155.1083 L254.7495 -158.5164 L252.6117 -161.8943 L250.4304 -165.2416 L248.206 -168.5579 L245.9388 -171.8427 L243.6293 -175.0958 L241.2778 -178.3166 L238.8848 -181.5048 L236.4507 -184.66 L233.9758 -187.7817 L231.4605 -190.8697 L228.9053 -193.9234 L226.3105 -196.9426 L223.3815 -200.2561 L220.7045 -203.2009 L217.9892 -206.1099 L215.236 -208.9825 L212.4453 -211.8186 L209.6174 -214.6176 L206.7528 -217.3792 L203.8519 -220.1029 L200.915 -222.7885 L197.9427 -225.4354 L194.9352 -228.0432 L191.8929 -230.6117 L188.8163 -233.1403 L185.7058 -235.6287 L182.5617 -238.0765 L179.3845 -240.4832 L176.1745 -242.8486 L172.9322 -245.172 L169.6579 -247.4533 L166.3521 -249.692 L163.0151 -251.8878 L159.6474 -254.04 L156.2493 -256.1485 L152.8212 -258.2129 L149.3636 -260.2325 L145.8768 -262.2072 L142.3613 -264.1365 L138.8174 -266.02 L135.2455 -267.8572 L131.646 -269.648 L128.0193 -271.3917 L124.3659 -273.088 L120.6861 -274.7366 L116.9804 -276.3369 L113.249 -277.8887 L109.4924 -279.3915 L105.7111 -280.845 L102.3295 -282.0952 L98.6079 -283.4168 L97.8668 -283.1624 L94.064 -281.7575 L90.3054 -280.2632 L86.5924 -278.6809 L82.9262 -277.0119 L79.3082 -275.2573 L75.7396 -273.4185 L72.2217 -271.4969 L68.7559 -269.4935 L65.3433 -267.4099 L61.9854 -265.2472 L58.6833 -263.0068 L55.4385 -260.69 L52.2521 -258.298 L49.1256 -255.8322 L46.06 -253.2937 L43.0569 -250.6841 L40.1174 -248.0044 L37.2428 -245.2561 L34.4345 -242.4403 L31.6937 -239.5585 L29.0218 -236.6119 L26.42 -233.6017 L23.6129 -230.1842 L21.1633 -227.0442 L18.7879 -223.8447 L16.4879 -220.587 L14.2647 -217.2724 L12.1194 -213.9022 L10.0535 -210.4777 L8.0682 -207.0001 L6.1648 -203.4709 L4.3446 -199.8912 L2.6088 -196.2623 L1.1379 -192.9964 L-0.4347 -189.2782 L-1.9191 -185.5146 L-3.314 -181.707 L-4.6181 -177.8564 L-5.8301 -173.9643 L-6.9487 -170.032 L-7.8635 -166.5039 L-8.8022 -162.4991 L-9.6437 -158.4578 L-10.3869 -154.3813 L-10.9637 -150.7292 L-11.5174 -146.5897 L-11.9239 -142.8836 L-12.2835 -138.6857 L-12.5154 -134.9298 L-12.6764 -130.6782 L-12.7297 -126.8765 L-12.6862 -122.5941 L-12.5589 -118.8109 L-12.3156 -114.5809 L-12.0114 -110.8451 L-11.5713 -106.6708 L-11.0942 -102.9865 L-10.462 -98.8724 L-9.73 -94.7921 L-8.9965 -91.1945 L-8.0793 -87.1815 L-7.0661 -83.2061 L-5.958 -79.2694 L-4.7563 -75.3728 L-3.6107 -71.9439 L-2.236 -68.1266 L-0.7714 -64.3531 L0.7817 -60.6248 L2.422 -56.9429 L4.1483 -53.3086 L5.9591 -49.7234 L7.8533 -46.1885 L9.8296 -42.7051 L11.8866 -39.2747 L14.0231 -35.8984 L16.2377 -32.5776 L18.5292 -29.3136 L20.8963 -26.1076 L23.3376 -22.9609 L25.852 -19.8749 L28.4381 -16.8508 L31.0945 -13.8899 L33.8201 -10.9936 L36.6135 -8.1631 L39.4735 -5.3996 L42.3987 -2.7046 L45.7238 0.2081 L48.7825 2.7545 L51.9023 5.2285 L55.0821 7.6288 L58.3205 9.954 L61.6163 12.203 L64.9681 14.3744 L68.3747 16.4669 L71.8347 18.4792 L75.3469 20.41 L78.9099 22.2581 L82.5226 24.0222 L86.1835 25.7009 L89.4771 27.1203 L93.2257 28.6343 L97.0189 30.0592 L100.8553 31.3937 L104.7337 32.6365 L108.6527 33.7864 L112.6111 34.842 L116.1618 35.7002 L120.1911 36.5742 L124.256 37.3503 L127.8981 37.9568 L132.0269 38.5443 L136.1875 39.03 L139.9116 39.3753 L144.129 39.6654 L147.9015 39.8347 L152.1711 39.9245 L155.9816 39.9122 L159.7728 39.8166 L164.0121 39.6085 L167.7566 39.3352 L171.9411 38.9295 L176.0947 38.4211 L179.7598 37.884 L183.8515 37.1851 L187.9086 36.3872 L191.4848 35.5959 L195.4729 34.6145 L199.4226 33.5379 L203.3327 32.3673 L207.2018 31.104 L210.6056 29.9044 L214.3938 28.4696 L218.1373 26.9458 L221.8349 25.3344 L225.4851 23.6367 L229.0868 21.8539 L232.6387 19.9873 L236.1394 18.0383 L239.5876 16.0081 L242.9821 13.8979 L246.3215 11.7092 L249.6046 9.4432 L252.8301 7.1012 L255.9967 4.6844 L259.1031 2.1943 L262.1479 -0.3681 L265.13 -3.0012 L268.048 -5.7039 L270.9006 -8.4748 L273.6866 -11.3128 L276.7024 -14.543 L279.3433 -17.518 L281.9135 -20.5559 L284.4118 -23.6556 L286.8367 -26.8155 L289.1871 -30.0345 L291.4617 -33.3113 L293.6591 -36.6446 L295.778 -40.0331 L297.055 -42.1887 L297.4991 -38.9402 L298.0085 -34.7845 L298.4135 -31.076 L298.815 -26.888 L299.1237 -23.1514 L299.4161 -18.9324 L299.6271 -15.169 L299.8091 -10.9204 L299.9211 -7.1313 L299.9911 -2.8547 L299.9985 0.9537 L299.963 4.7615 L299.8666 9.0315 L299.7312 12.8146 L299.5233 17.0562 L299.2892 20.8134 L298.971 25.0251 L298.6397 28.7551 L298.2127 32.9356 L297.7853 36.6371 L297.2509 40.7849 L296.6603 44.9147 L296.0884 48.5704 L295.3925 52.6654 L294.6416 56.7413 L293.9281 60.348 L293.0741 64.3869 L292.1661 68.4056 L291.2045 72.4038 L290.3051 75.94 L289.2435 79.8982 L288.1294 83.8346 L286.9632 87.7489 L285.7454 91.6406 L284.6199 95.0807 L283.3058 98.9288 L281.9411 102.7532 L280.5263 106.5535 L279.0618 110.3294 L277.5481 114.0804 L275.9855 117.8061 L274.3744 121.5061 L272.7152 125.1801 L271.2003 128.4236 L269.4513 132.0473 L267.6554 135.6437 L265.813 139.2125 L263.9244 142.7533 L261.9901 146.2657 L260.0103 149.7493 L257.9857 153.2036 L255.9164 156.6283 L253.8031 160.0231 L251.6459 163.3874 L249.4454 166.7209 L247.202 170.0233 L244.9159 173.294 L242.5878 176.5328 L240.2178 179.7391 L237.8065 182.9127 L235.3542 186.0531 L232.8613 189.1598 L230.0443 192.5719 L227.4671 195.6065 L224.8505 198.6062 L222.195 201.5708 L219.501 204.4997 L216.7688 207.3926 L213.9988 210.249 L211.1916 213.0686 L208.3473 215.8511 L205.4666 218.5959 L202.5496 221.3027 L199.5969 223.9711 L196.6088 226.6007 L193.5858 229.1911 L190.5283 231.7419 L187.4365 234.2527 L184.311 236.7231 L181.1522 239.1527 L177.9603 241.5411 L174.7359 243.888 L171.4793 246.1928 L168.1909 248.4553 L164.8712 250.6749 L161.5205 252.8514 L158.1392 254.9843 L154.7277 257.0733 L151.2864 259.1178 L147.8158 261.1176 L144.3161 263.0722 L140.7879 264.9813 L137.2314 266.8443 L133.6472 268.661 L130.0356 270.4309 L126.3969 272.1537 L122.7317 273.8289 L119.0402 275.4562 L115.323 277.0351 L111.5803 278.5652 L107.8127 280.0461 L104.0204 281.4776 L100.6291 282.708 L96.7915 284.0448 L92.9303 285.3309 L89.0461 286.5658 L85.1392 287.7493 L81.2101 288.8809 L77.6991 289.8428 L73.729 290.8752 L69.7378 291.8546 L65.7258 292.7805 L62.1426 293.5584 L58.0926 294.3824 L54.023 295.1517 L49.9342 295.8661 L46.284 296.4546 L42.1601 297.064 L38.4793 297.5585 L34.3217 298.0616 L30.1468 298.5077 L26.4217 298.8561 L22.2153 299.1937 L18.4627 299.445 L14.2262 299.6726 L10.4475 299.8256 L6.1822 299.9418 L2.3786 299.9951 L-1.4303 299.9967 Z"
    /></g
    ><g style="stroke-linecap:round;" transform="translate(975,300)"
    ><path style="stroke:none;" d="M48.5 73.5 C52.5 71.1 57.1 69.9 62.4 69.9 C65.9 69.9 69.2 70.5 72.4 71.6 C75.6 72.7 78.5 74.2 81.1 76.2 C83.7 78.1 86 80.2 87.9 82.4 L105.9 60.8 C101.1 54.6 94.5 49.7 86.3 46.3 C78.1 42.8 69.1 41.1 59.2 41.1 C48.6 41.1 39 43.6 30.6 48.6 C22.2 53.6 15.5 60.4 10.6 69 C5.7 77.6 3.2 87.4 3.2 98.3 C3.2 109.2 5.7 119 10.6 127.6 C15.5 136.2 22.2 143 30.6 148 C39 153 48.6 155.5 59.2 155.5 C68.7 155.5 77.7 153.8 86.1 150.3 C94.5 146.8 101 142.1 105.7 136.2 L87.9 114.4 C85.7 117 83.3 119.2 80.7 121 C78.1 122.8 75.3 124.1 72.3 125 C69.3 125.9 65.9 126.3 62.3 126.3 C57.2 126.3 52.6 125.1 48.6 122.6 C44.6 120.1 41.4 116.7 39.2 112.4 C36.9 108.1 35.8 103.3 35.8 98.1 C35.8 92.6 36.9 87.7 39.1 83.4 C41.4 79.3 44.5 75.9 48.5 73.5 Z"
      /><rect x="134.6" width="33.2" height="153.5" y="0" style="stroke:none;"
      /><path style="stroke:none;" d="M226.4 148.2 C235.4 153.1 246 155.6 258.1 155.6 C263.1 155.6 268.1 155 273.1 153.8 C278.1 152.6 283.1 150.9 287.9 148.5 C292.7 146.1 297.3 143.1 301.6 139.4 L286 117.4 C281.7 120.7 277.7 123.1 274.1 124.5 C270.4 125.9 266.3 126.6 261.6 126.6 C254.8 126.6 249 125.4 244.1 122.9 C239.2 120.4 235.5 116.9 232.9 112.4 C231.7 110.3 230.8 108.1 230.2 105.7 L305.8 105.7 L306 96.8 C306.3 88.8 305.2 81.4 302.7 74.6 C300.2 67.8 296.6 61.9 291.9001 57 C287.2 52 281.6001 48.2 275.2 45.4 C268.8 42.6 261.7 41.3 253.9 41.3 C245.7 41.3 238.2 42.7 231.4 45.6 C224.6 48.4 218.6 52.4 213.7 57.6 C208.7 62.8 204.9 68.9 202.1 76 C199.3 83.1 198 90.8 198 99.2 C198 110.1 200.5 119.8 205.5 128.3 C210.5 136.6 217.5 143.3 226.4 148.2 ZM232 81.4 C233.9 77.3 236.8 74.2 240.6 72.1 C244.4 70 249 68.9 254.4 68.9 C258.3 68.9 261.7 69.7 264.8 71.2 C267.8 72.7 270.3 74.8 272.2 77.5 C274.1 80.2 275.1 83.3 275.4 86.7 L275.4 86.9 L230.2 86.9 C230.7 84.9 231.3 83.1 232 81.4 Z"
      /><path style="stroke:none;" d="M412 56.7 C410 54.1 407.7 51.8 405.2 49.7 C401.9 47 398 44.9 393.7 43.4 C389.3 41.9 384.5 41.1 379.3 41.1 C369.8 41.1 361.3 43.6 353.8 48.5 C346.3 53.4 340.5 60.1 336.2 68.7 C331.9 77.3 329.8 87.2 329.8 98.4 C329.8 109.3 331.9 119.1 336.2 127.7 C340.5 136.3 346.3 143.1 353.5 148 C360.8 152.9 369 155.4 378.3 155.4 C383.3 155.4 388 154.6 392.4 153.1 C396.8 151.6 400.8 149.5 404.4 146.9 C407.1 145 409.4 142.8 411.5 140.4 L411.5 153.5 L445 153.5 L445 43.3 L412 43.3 L412 56.7 ZM409.4 113.7 C407.3 118.1 404.4 121.4 400.7 123.8 C397 126.2 392.5 127.3 387.4 127.3 C382.4 127.3 378.1 126.1 374.4 123.8 C370.7 121.5 367.9 118.1 365.8 113.7 C363.7 109.3 362.7 104.2 362.7 98.3 C362.7 92.4 363.7 87.2 365.8 82.9 C367.9 78.5 370.7 75.2 374.4 72.7 C378.1 70.3 382.4 69.1 387.4 69.1 C392.5 69.1 396.9 70.3 400.7 72.7 C404.4 75.1 407.3 78.5 409.4 82.9 C411.5 87.3 412.5 92.4 412.5 98.3 C412.5 104.2 411.4 109.4 409.4 113.7 Z"
      /><path style="stroke:none;" d="M556.3 41.7 C554.2 41.3 551.8 41.1 549.4 41.1 C543.6 41.1 538.1 42.5 532.9999 45.2 C527.9 48 523.4 51.7 519.5999 56.4 C518.5999 57.6 517.6999 58.9 516.8999 60.2 L516.1999 43.3 L484.6999 43.3 L484.6999 153.4 L518 153.4 L518 98.3 C518 95 518.5 92 519.6 89.4 C520.6 86.8 522.1 84.5 523.9 82.6 C525.7 80.7 527.9 79.2 530.4999 78.1 C533.0999 77.1 535.9999 76.5 538.9999 76.5 C541.7999 76.5 544.4 76.8 546.9999 77.4 C549.5999 78 551.5999 78.8 553.0999 79.8 L562.1999 43.1 C560.4 42.6 558.4 42.1 556.3 41.7 Z"
      /><path style="stroke:none;" d="M87.3 349.8 C84.5 346.8 80.8 344.1 76.1 341.9 C71.4 339.7 65.8 337.7 59.3 335.9 C54 334.4 49.9 333.1 46.9 332.1 C43.9 331.1 41.6 330.1 40.3 329.3 C38.9 328.5 37.8 327.4 37.1 326.2 C36.3 325 36 323.6 36 322.3 C36 320.9 36.3 319.7 36.8 318.7 C37.4 317.7 38.2 316.8 39.3 316 C40.4 315.2 41.8 314.7 43.3 314.3 C44.9 314 46.7 313.8 48.8 313.8 C51.6 313.8 54.6 314.4 57.9 315.5 C61.2 316.6 64.4 318.1 67.5 320 C70.6 321.9 73.4 324 75.9 326.3 L93.3 306.8 C89.6 303.3 85.3 300.4 80.5 297.9 C75.7 295.4 70.6 293.5 65 292.1 C59.5 290.7 53.7 290 47.6 290 C41.9 290 36.4 290.8 31.1 292.4 C25.8 294 21.1 296.3 17 299.3 C12.9 302.3 9.7 305.9 7.3 310.1 C4.9 314.2 3.7 318.9 3.7 324 C3.7 328.4 4.5 332.4 6 335.9 C7.5 339.4 9.7 342.6 12.4 345.5 C15.4 348.5 19.3 351.2 24.1 353.5 C28.9 355.8 34.5 357.7 41 359.4 C45.6 360.6 49.3 361.8 52.2 362.7 C55.1 363.7 57.2 364.4999 58.4 365.2 C60.9 366.7 62.1 368.9 62.1 371.5999 C62.1 372.9999 61.8 374.2 61.3 375.2 C60.7 376.2 60 377.0999 58.9 377.9 C57.9 378.7 56.6 379.2 55.1 379.7 C53.6 380.0999 51.8 380.3 49.9 380.3 C45.1 380.3 39.9 379.3 34.6 377.3 C29.2 375.3 24.4 372.0999 20.1 367.9 L0 385.3 C4.8 391.1 11.4 395.7 19.6 399.2 C27.8 402.7 37.3 404.4 48.1 404.4 C56.9 404.4 64.8 402.8 71.7 399.7 C78.6 396.6 84 392.3 88 386.8 C91.9 381.3 93.9 375.1 93.9 368 C93.9 364.4 93.3 361.1 92.2 357.9 C91.2 354.9 89.5 352.2 87.3 349.8 Z"
      /><path style="stroke:none;" d="M195.1 292.2 L157.2 331.2 L157.2 248.8 L124 248.8 L124 402.3 L157.2 402.3 L157.2 368.8 L166.2 360.3 L198.7 402.3 L237.9 402.3 L188.1 339.8 L238.9 292.2 Z"
      /><path style="stroke:none;" d="M318.9 350.5 C317.8 353.8 316.7 356.9 315.8 359.7 C315.5 358.6 315.2 357.6 314.8 356.5 C313.7 353.3 312.5 350.4 311.3 347.6 L288 292.2 L250.5 292.2 L299.6 399.3 L278.1 450 L311.1 450 L330.2 402.3 L377 292.2 L339.3 292.2 L318.9 350.5 Z"
    /></g
  ></g
></svg
>
