<svg width="62" height="62" viewBox="0 0 62 62" fill="none" xmlns="http://www.w3.org/2000/svg">
<circle cx="31" cy="31" r="31" fill="#C1BDD0"/>
<path d="M42 23.5C42 31.0939 37.0751 36 31 36C24.9249 36 20 31.0939 20 23.5C20 15.9061 24.9249 11 31 11C37.0751 11 42 15.9061 42 23.5Z" fill="#9894A7"/>
<mask id="mask0_511_9838" style="mask-type:alpha" maskUnits="userSpaceOnUse" x="0" y="0" width="62" height="62">
<circle cx="31" cy="31" r="31" fill="#E9E6F4"/>
</mask>
<g mask="url(#mask0_511_9838)">
<ellipse cx="31" cy="52" rx="28" ry="14" fill="#9894A7"/>
</g>
</svg>
